DATA 624 | Predictive Analytics
…
arrange(global_economy, desc(GDP_per_capita))

## # A tsibble: 15,150 x 10 [1Y]
## # Key:       Country [263]
##    Country       Code   Year         GDP Growth   CPI Imports Exports Population
##    <fct>         <fct> <dbl>       <dbl>  <dbl> <dbl>   <dbl>   <dbl>      <dbl>
##  1 Monaco        MCO    2014 7060236168.  7.18     NA      NA      NA      38132
##  2 Monaco        MCO    2008 6476490406.  0.732    NA      NA      NA      35853
##  3 Liechtenstein LIE    2014 6657170923. NA        NA      NA      NA      37127
##  4 Liechtenstein LIE    2013 6391735894. NA        NA      NA      NA      36834
##  5 Monaco        MCO    2013 6553372278.  9.57     NA      NA      NA      37971
##  6 Monaco        MCO    2016 6468252212.  3.21     NA      NA      NA      38499
##  7 Liechtenstein LIE    2015 6268391521. NA        NA      NA      NA      37403
##  8 Monaco        MCO    2007 5867916781. 14.4      NA      NA      NA      35111
##  9 Liechtenstein LIE    2016 6214633651. NA        NA      NA      NA      37666
## 10 Monaco        MCO    2015 6258178995.  4.94     NA      NA      NA      38307
## # ... with 15,140 more rows, and 1 more variable: GDP_per_capita <dbl>
…
