DATA 624 | Predictive Analytics
…
The wavelength for ARMA(1,1) is slightly wider, the amplitude has minimum and maximum values around \(\pm 3\), and has slight steady variance throughout the index range. The wavelength for AR(2) is narrower, has slightly larger amplitudes with minimum and maximum values around \(\pm 5\) and has a steady variance.

9.7

Consider aus_airpassengers, the total number of passengers (in millions) from Australian air carriers for the period 1970-2011.

aus_airpassengers

## # A tsibble: 47 x 2 [1Y]
##     Year Passengers
##    <dbl>      <dbl>
##  1  1970       7.32
##  2  1971       7.33
##  3  1972       7.80
##  4  1973       9.38
##  5  1974      10.7 
##  6  1975      11.1 
##  7  1976      10.9 
##  8  1977      11.3 
##  9  1978      12.1 
## 10  1979      13.0 
## # ... with 37 more rows
…
